{
  "id": "1c008c67-94a0-4a23-b08a-0017bb5c435e",
  "schema": "https://metadata.datadrivendiscovery.org/schemas/v0/pipeline.json",
  "created": "2019-11-22T19:37:13.050794Z",
  "inputs": [
    {
      "name": "input dataset"
    }
  ],
  "outputs": [
    {
      "data": "steps.6.produce",
      "name": "predictions of input dataset"
    }
  ],
  "steps": [
    {
      "type": "PRIMITIVE",
      "primitive": {
        "id": "f31f8c1f-d1c5-43e5-a4b2-2ae4a761ef2e",
        "version": "0.2.0",
        "python_path": "d3m.primitives.data_transformation.denormalize.Common",
        "name": "Denormalize datasets",
        "digest": "16c9f67b149ccb499e7dfbabba6a4b15c670e10759eefd56ea7ee05e59c41979"
      },
      "arguments": {
        "inputs": {
          "type": "CONTAINER",
          "data": "inputs.0"
        }
      },
      "outputs": [
        {
          "id": "produce"
        }
      ]
    },
    {
      "type": "PRIMITIVE",
      "primitive": {
        "id": "4b42ce1e-9b98-4a25-b68e-fad13311eb65",
        "version": "0.3.0",
        "python_path": "d3m.primitives.data_transformation.dataset_to_dataframe.Common",
        "name": "Extract a DataFrame from a Dataset",
        "digest": "fd3524c43db27ef31bc29c097a0bd7a366510f209d5aff28e6d3e802a35db020"
      },
      "arguments": {
        "inputs": {
          "type": "CONTAINER",
          "data": "steps.0.produce"
        }
      },
      "outputs": [
        {
          "id": "produce"
        }
      ]
    },
    {
      "type": "PRIMITIVE",
      "primitive": {
        "id": "4503a4c6-42f7-45a1-a1d4-ed69699cf5e1",
        "version": "0.4.0",
        "python_path": "d3m.primitives.data_transformation.extract_columns_by_semantic_types.Common",
        "name": "Extracts columns by semantic type",
        "digest": "edb6606a33dc74e0bfc7d149ea7ae1a469d51c6af4e14201775ef9826942528d"
      },
      "arguments": {
        "inputs": {
          "type": "CONTAINER",
          "data": "steps.1.produce"
        }
      },
      "outputs": [
        {
          "id": "produce"
        }
      ],
      "hyperparams": {
        "semantic_types": {
          "type": "VALUE",
          "data": [
            "https://metadata.datadrivendiscovery.org/types/PrimaryKey",
            "https://metadata.datadrivendiscovery.org/types/FileName"
          ]
        }
      }
    },
    {
      "type": "PRIMITIVE",
      "primitive": {
        "id": "4503a4c6-42f7-45a1-a1d4-ed69699cf5e1",
        "version": "0.4.0",
        "python_path": "d3m.primitives.data_transformation.extract_columns_by_semantic_types.Common",
        "name": "Extracts columns by semantic type",
        "digest": "edb6606a33dc74e0bfc7d149ea7ae1a469d51c6af4e14201775ef9826942528d"
      },
      "arguments": {
        "inputs": {
          "type": "CONTAINER",
          "data": "steps.1.produce"
        }
      },
      "outputs": [
        {
          "id": "produce"
        }
      ],
      "hyperparams": {
        "semantic_types": {
          "type": "VALUE",
          "data": [
            "https://metadata.datadrivendiscovery.org/types/TrueTarget"
          ]
        }
      }
    },
    {
      "type": "PRIMITIVE",
      "primitive": {
        "id": "a29b0080-aeff-407d-9edb-0aa3eefbde01",
        "version": "0.2.0",
        "python_path": "d3m.primitives.data_preprocessing.video_reader.Common",
        "name": "Columns video reader",
        "digest": "546e82d0d5f6f479eea5cfc175ffd9eb7c6bb9a57ef211019584208fe78cb720"
      },
      "arguments": {
        "inputs": {
          "type": "CONTAINER",
          "data": "steps.2.produce"
        }
      },
      "outputs": [
        {
          "id": "produce"
        }
      ]
    },
    {
      "type": "PRIMITIVE",
      "primitive": {
        "id": "dsbox-featurizer-image-inceptionV3",
        "version": "1.5.4",
        "python_path": "d3m.primitives.feature_extraction.inceptionV3_image_feature.DSBOX",
        "name": "DSBox Image Featurizer inceptionV3",
        "digest": "d33fc0628eecea7c2e9764fca184fb6b1e38bcf33283c1eea8d463e5953101ed"
      },
      "arguments": {
        "inputs": {
          "type": "CONTAINER",
          "data": "steps.4.produce"
        }
      },
      "outputs": [
        {
          "id": "produce"
        }
      ],
      "hyperparams": {
        "use_limitation": {
          "type": "VALUE",
          "data": true
        }
      }
    },
    {
      "type": "PRIMITIVE",
      "primitive": {
        "id": "dsbox-featurizer-video-classification-lstm",
        "version": "1.5.4",
        "python_path": "d3m.primitives.classification.lstm.DSBOX",
        "name": "DSBox Video Classification LSTM",
        "digest": "12a7709f2184d8382a37a7023fc61712771ded0c13230720e572ca47d7f58682"
      },
      "arguments": {
        "inputs": {
          "type": "CONTAINER",
          "data": "steps.5.produce"
        },
        "outputs": {
          "type": "CONTAINER",
          "data": "steps.3.produce"
        }
      },
      "outputs": [
        {
          "id": "produce"
        }
      ],
      "hyperparams": {
        "LSTM_units": {
          "type": "VALUE",
          "data": 2048
        },
        "epochs": {
          "type": "VALUE",
          "data": 2000
        },
        "validate_data_percent": {
          "type": "VALUE",
          "data": 0.1
        }
      }
    }
  ],
  "name": "DefaultVideoClassificationTemplate:140592677584832",
  "description": "",
  "digest": "9716e38b1f4942147caec1dfa506faaa4bf448a610799884348fceca8d6277d6"
}
