{
  "id": "428e4482-04dd-4548-8090-5264079b7fcf",
  "schema": "https://metadata.datadrivendiscovery.org/schemas/v0/pipeline.json",
  "created": "2020-06-23T00:00:00.000000Z",
  "inputs": [
    {
      "name": "inputs"
    }
  ],
  "outputs": [
    {
      "data": "steps.7.produce",
      "name": "output predictions"
    }
  ],
  "steps": [
    {
      "type": "PRIMITIVE",
      "primitive": {
        "id": "4b42ce1e-9b98-4a25-b68e-fad13311eb65",
        "version": "0.3.0",
        "python_path": "d3m.primitives.data_transformation.dataset_to_dataframe.Common",
        "name": "Extract a DataFrame from a Dataset"
      },
      "arguments": {
        "inputs": {
          "type": "CONTAINER",
          "data": "inputs.0"
        }
      },
      "outputs": [
        {
          "id": "produce"
        }
      ]
    },
    {
      "type": "PRIMITIVE",
      "primitive": {
        "id": "d510cb7a-1782-4f51-b44c-58f0236e47c7",
        "version": "0.5.0",
        "python_path": "d3m.primitives.data_transformation.column_parser.DataFrameCommon",
        "name": "Parses strings into their types"
      },
      "arguments": {
        "inputs": {
          "type": "CONTAINER",
          "data": "steps.0.produce"
        }
      },
      "outputs": [
        {
          "id": "produce"
        }
      ]
    },
    {
      "type": "PRIMITIVE",
      "primitive": {
        "id": "4503a4c6-42f7-45a1-a1d4-ed69699cf5e1",
        "version": "0.3.0",
        "python_path": "d3m.primitives.data_transformation.extract_columns_by_semantic_types.DataFrameCommon",
        "name": "Extracts columns by semantic type"
      },
      "arguments": {
        "inputs": {
          "type": "CONTAINER",
          "data": "steps.1.produce"
        }
      },
      "outputs": [
        {
          "id": "produce"
        }
      ],
      "hyperparams": {
        "semantic_types": {
          "type": "VALUE",
          "data": [
            "https://metadata.datadrivendiscovery.org/types/Attribute"
          ]
        }
      }
    },
    {
      "type": "PRIMITIVE",
      "primitive": {
        "id": "4503a4c6-42f7-45a1-a1d4-ed69699cf5e1",
        "version": "0.3.0",
        "python_path": "d3m.primitives.data_transformation.extract_columns_by_semantic_types.DataFrameCommon",
        "name": "Extracts columns by semantic type"
      },
      "arguments": {
        "inputs": {
          "type": "CONTAINER",
          "data": "steps.0.produce"
        }
      },
      "outputs": [
        {
          "id": "produce"
        }
      ],
      "hyperparams": {
        "semantic_types": {
          "type": "VALUE",
          "data": [
            "https://metadata.datadrivendiscovery.org/types/TrueTarget"
          ]
        }
      }
    },
    {
      "type": "PRIMITIVE",
      "primitive": {
        "id": "d016df89-de62-3c53-87ed-c06bb6a23cde",
        "version": "2019.6.7",
        "python_path": "d3m.primitives.data_cleaning.imputer.SKlearn",
        "name": "sklearn.impute.SimpleImputer"
      },
      "arguments": {
        "inputs": {
          "type": "CONTAINER",
          "data": "steps.2.produce"
        }
      },
      "outputs": [
        {
          "id": "produce"
        }
      ],
      "hyperparams": {
        "use_semantic_types": {
          "type": "VALUE",
          "data": true
        },
        "return_result": {
          "type": "VALUE",
          "data": "replace"
        }
      }
    },
    {
      "type": "PRIMITIVE",
      "primitive": {
        "id": "93acb44b-532a-37d3-987a-8e61a8489d77",
        "version": "2019.6.7",
        "python_path": "d3m.primitives.data_preprocessing.polynomial_features.SKlearn",
        "name": "sklearn.preprocessing.data.PolynomialFeatures"
      },
      "arguments": {
        "inputs": {
          "type": "CONTAINER",
          "data": "steps.4.produce"
        }
      },
      "outputs": [
        {
          "id": "produce"
        }
      ],
      "hyperparams": {
        "use_semantic_types": {
          "type": "VALUE",
          "data": true
        }
      }
    },
    {
            "arguments": {
                "inputs": {
                    "data": "steps.5.produce",
                    "type": "CONTAINER"
                },
                "outputs": {
                    "data": "steps.3.produce",
                    "type": "CONTAINER"
                }
            },
            "hyperparams": {
                "activation": {
                    "data": "relu",
                    "type": "VALUE"
                },
                "add_index_columns": {
                    "data": true,
                    "type": "VALUE"
                },
                "alpha": {
                    "data": 0.01,
                    "type": "VALUE"
                },
                "beta_1": {
                    "data": 0.9,
                    "type": "VALUE"
                },
                "beta_2": {
                    "data": 0.999,
                    "type": "VALUE"
                },
                "early_stopping": {
                    "data": true,
                    "type": "VALUE"
                },
                "epsilon": {
                    "data": 1e-08,
                    "type": "VALUE"
                },
                "exclude_columns": {
                    "data": [],
                    "type": "VALUE"
                },
                "hidden_layer_sizes": {
                    "data": {
                        "encoding": "pickle",
                        "value": "gANjY29weXJlZwpfcmVjb25zdHJ1Y3RvcgpxAGNkM20uY29udGFpbmVyLmxpc3QKTGlzdApxAWNidWlsdGlucwpsaXN0CnECXXEDKE0sAU0sAWWHcQRScQV9cQZYCAAAAG1ldGFkYXRhcQdjZDNtLm1ldGFkYXRhLmJhc2UKRGF0YU1ldGFkYXRhCnEIKYFxCX1xCihYEQAAAF9jdXJyZW50X21ldGFkYXRhcQtjZDNtLm1ldGFkYXRhLmJhc2UKTWV0YWRhdGFFbnRyeQpxDCmBcQ1OfXEOKFgIAAAAZWxlbWVudHNxD2NkM20udXRpbHMKcG1hcApxEH1xEYVxElJxE1gMAAAAYWxsX2VsZW1lbnRzcRROaAdjZnJvemVuZGljdApGcm96ZW5PcmRlcmVkRGljdApxFSmBcRZ9cRcoWAUAAABfZGljdHEYY2NvbGxlY3Rpb25zCk9yZGVyZWREaWN0CnEZKVJxGlgFAAAAX2hhc2hxG051YlgIAAAAaXNfZW1wdHlxHIhYEQAAAGlzX2VsZW1lbnRzX2VtcHR5cR2IdYZxHmJoG051YnNiLg=="
                    },
                    "type": "VALUE"
                },
                "learning_rate": {
                    "data": "constant",
                    "type": "VALUE"
                },
                "learning_rate_init": {
                    "data": 0.01,
                    "type": "VALUE"
                },
                "max_iter": {
                    "data": 200,
                    "type": "VALUE"
                },
                "return_result": {
                    "data": "replace",
                    "type": "VALUE"
                },
                "shuffle": {
                    "data": false,
                    "type": "VALUE"
                },
                "solver": {
                    "data": "adam",
                    "type": "VALUE"
                },
                "tol": {
                    "data": 0.0001,
                    "type": "VALUE"
                },
                "use_columns": {
                    "data": [],
                    "type": "VALUE"
                },
                "use_semantic_types": {
                    "data": false,
                    "type": "VALUE"
                },
                "warm_start": {
                    "data": false,
                    "type": "VALUE"
                }
            },
            "outputs": [
                {
                    "id": "produce"
                }
            ],
            "primitive": {
                "id": "cdb18166-e2ca-4418-b5a4-fffbe98f7844",
                "name": "BBN MLP Classifier",
                "python_path": "d3m.primitives.classification.mlp.BBNMLPClassifier",
                "version": "0.1.4"
            },
            "type": "PRIMITIVE"
        }, 
    {
      "type": "PRIMITIVE",
      "primitive": {
        "id": "8d38b340-f83f-4877-baaa-162f8e551736",
        "version": "0.3.0",
        "python_path": "d3m.primitives.data_transformation.construct_predictions.DataFrameCommon",
        "name": "Construct pipeline predictions output"
      },
      "arguments": {
        "inputs": {
          "type": "CONTAINER",
          "data": "steps.6.produce"
        },
        "reference": {
          "type": "CONTAINER",
          "data": "steps.0.produce"
        }
      },
      "outputs": [
        {
          "id": "produce"
        }
      ]
    }
  ]
}

