{
  "id": "e7ecc21c-51c3-433b-b91b-32df42c5fd08",
  "schema": "https://metadata.datadrivendiscovery.org/schemas/v0/pipeline.json",
  "created": "2021-03-20T00:39:13.282451Z",
  "inputs": [
    {
      "name": "inputs"
    }
  ],
  "outputs": [
    {
      "data": "steps.4.produce",
      "name": "output predictions"
    }
  ],
  "steps": [
    {
      "type": "PRIMITIVE",
      "primitive": {
        "id": "4b42ce1e-9b98-4a25-b68e-fad13311eb65",
        "version": "0.3.0",
        "python_path": "d3m.primitives.data_transformation.dataset_to_dataframe.Common",
        "name": "Extract a DataFrame from a Dataset"
      },
      "arguments": {
        "inputs": {
          "type": "CONTAINER",
          "data": "inputs.0"
        }
      },
      "outputs": [
        {
          "id": "produce"
        }
      ]
    },
    {
      "type": "PRIMITIVE",
      "primitive": {
        "id": "d510cb7a-1782-4f51-b44c-58f0236e47c7",
        "version": "0.6.0",
        "python_path": "d3m.primitives.data_transformation.column_parser.Common",
        "name": "Parses strings into their types"
      },
      "arguments": {
        "inputs": {
          "type": "CONTAINER",
          "data": "steps.0.produce"
        }
      },
      "outputs": [
        {
          "id": "produce"
        }
      ]
    },
    {
      "type": "PRIMITIVE",
      "primitive": {
        "id": "d016df89-de62-3c53-87ed-c06bb6a23cde",
        "version": "2021.3.19",
        "python_path": "d3m.primitives.data_cleaning.imputer.SKlearn",
        "name": "sklearn.impute.SimpleImputer"
      },
      "arguments": {
        "inputs": {
          "type": "CONTAINER",
          "data": "steps.1.produce"
        }
      },
      "outputs": [
        {
          "id": "produce"
        }
      ],
      "hyperparams": {
        "use_semantic_types": {
          "type": "VALUE",
          "data": true
        },
        "return_result": {
          "type": "VALUE",
          "data": "replace"
        }
      }
    },
    {
      "type": "PRIMITIVE",
      "primitive": {
        "id": "1b2a32a6-0ec5-3ca0-9386-b8b1f1b831d1",
        "version": "2021.3.19",
        "python_path": "d3m.primitives.classification.bagging.SKlearn",
        "name": "sklearn.ensemble.bagging.BaggingClassifier"
      },
      "arguments": {
        "inputs": {
          "type": "CONTAINER",
          "data": "steps.2.produce"
        },
        "outputs": {
          "type": "CONTAINER",
          "data": "steps.2.produce"
        }
      },
      "outputs": [
        {
          "id": "produce"
        }
      ],
      "hyperparams": {
        "use_semantic_types": {
          "type": "VALUE",
          "data": true
        },
        "add_index_columns": {
          "type": "VALUE",
          "data": true
        }
      }
    },
    {
      "type": "PRIMITIVE",
      "primitive": {
        "id": "8d38b340-f83f-4877-baaa-162f8e551736",
        "version": "0.3.0",
        "python_path": "d3m.primitives.data_transformation.construct_predictions.Common",
        "name": "Construct pipeline predictions output"
      },
      "arguments": {
        "inputs": {
          "type": "CONTAINER",
          "data": "steps.3.produce"
        },
        "reference": {
          "type": "CONTAINER",
          "data": "steps.0.produce"
        }
      },
      "outputs": [
        {
          "id": "produce"
        }
      ]
    }
  ]
}